urban informatics | All things urban and data
…
weights: the list of weights to be used.

Let’s calculate the lag for bach and store it in variable bach_lag.

acs_lag <- acs_nb %>% 
  mutate(bach_lag = st_lag(bach, nb, wt)) 

acs_lag %>% 
  select(bach, bach_lag)
#> Simple feature collection with 203 features and 2 fields
#> Geometry type: MULTIPOLYGON
#> Dimension:     XY
#> Bounding box:  xmin: -71.19125 ymin: 42.22793 xmax: -70.9201 ymax: 42.45012
#> Geodetic CRS:  WGS 84
#> # A tibble: 203 x 3
#>     bach bach_lag                                                       geometry
#>    <dbl>    <dbl>                                             <MULTIPOLYGON [°]>
#>  1 0.124    0.207 (((-71.06249 42.29221, -71.06234 42.29273, -71.06226 42.29301…
#>  2 0.305    0.208 (((-71.05147 42.28931, -71.05136 42.28933, -71.05032 42.28961…
#>  3 0.405    0.381 (((-71.11093 42.35047, -71.11093 42.3505, -71.11092 42.35054,…
#>  4 0.141    0.289 (((-71.06944 42.346, -71.0691 42.34661, -71.06884 42.3471, -7…
#>  5 0.208    0.264 (((-71.13397 42.25431, -71.13353 42.25476, -71.13274 42.25561…
#>  6 0.365    0.428 (((-71.04707 42.3397, -71.04628 42.34037, -71.0449 42.34153, …
#>  7 0.159    0.179 (((-71.01324 42.38301, -71.01231 42.38371, -71.01162 42.3842,…
#>  8 0.230    0.159 (((-71.00113 42.3871, -71.001 42.38722, -71.00074 42.3875, -7…
#>  9 0.266    0.296 (((-71.05079 42.32083, -71.0506 42.32076, -71.05047 42.32079,…
#> 10 0.199    0.184 (((-71.11952 42.28648, -71.11949 42.2878, -71.11949 42.28792,…
#> # … with 193 more rows
…
In sfweight, LISAs are created with local_moran(). local_moran() creates a dataframe column that we can extract with unpack() from the tidyr package. Unfortunately unpack() doesn’t work with sf objects so we’ll need to cast acs_lag to a tibble with as_tibble(), then unpack(), then back to sf with st_as_sf().

acs_lisa <- acs_lag %>% 
  mutate(lisa = local_moran(bach, nb, wt)) %>% 
  as_tibble() %>% 
  unpack(lisa) %>% 
  st_as_sf()

The resulting columns provide the local I, expected I, variance, z-value, and p value of each observation.

acs_lisa %>% 
  as_tibble() %>% 
  select(contains("ii")) 
#> # A tibble: 203 x 5
#>         ii     e_ii var_ii    z_ii    p_ii
#>      <dbl>    <dbl>  <dbl>   <dbl>   <dbl>
#>  1  0.315  -0.00495  0.138  0.863  0.194  
#>  2 -0.137  -0.00495  0.328 -0.231  0.592  
#>  3  1.22   -0.00495  0.245  2.47   0.00678
#>  4 -0.253  -0.00495  0.161 -0.618  0.732  
#>  5 -0.0363 -0.00495  0.245 -0.0634 0.525  
#>  6  1.23   -0.00495  0.245  2.49   0.00637
#>  7  0.379  -0.00495  0.138  1.03   0.150  
#>  8  0.103  -0.00495  0.195  0.245  0.403  
#>  9  0.0474 -0.00495  0.494  0.0745 0.470  
#> 10  0.195  -0.00495  0.245  0.405  0.343  
#> # … with 193 more rows
…
